2018-02-08 16:53:34 INFO  AvailabilityRequestBuilder:32 - ........availabilityRequest_Document Starting..........
2018-02-08 16:53:34 INFO  AvailabilityRequestBuilder:113 - ........availabilityRequest_Document Ending..........
2018-02-08 16:53:34 INFO  CancellationRequestBuilder:28 - ........cancellationRequest_Document Starting..........
2018-02-08 16:53:34 INFO  CancellationRequestBuilder:38 - ........cancellationRequest_Document Ending..........
2018-02-08 16:53:34 INFO  CancellationRequestBuilder:28 - ........cancellationRequest_Document Starting..........
2018-02-08 16:53:34 INFO  CancellationRequestBuilder:38 - ........cancellationRequest_Document Ending..........
2018-02-08 16:53:34 INFO  ModificationRequestBuilder:156 - ........AMENDNOTE_modifyReservationRequest__Document Starting..........
2018-02-08 16:53:34 INFO  ModificationRequestBuilder:182 - ........AMENDNOTE_modifyReservationRequest__Document Ending..........
2018-02-08 16:53:35 INFO  ReservationRequestBuilder:32 - ........_ReservationRequest_Document Starting..........
2018-02-08 16:53:35 INFO  ReservationRequestBuilder:122 - ........_ReservationRequest_Document Ending..........
2018-02-08 16:53:35 INFO  AvailabilityResponseReader:31 - ................availabilityResponse reading Starting............
2018-02-08 16:53:35 ERROR AvailabilityResponseReader:80 - .....hotelpolicy is not availabile in the Response.......
2018-02-08 16:53:35 ERROR AvailabilityResponseReader:238 -  sales Tax is not availabile :
2018-02-08 16:53:35 ERROR AvailabilityResponseReader:238 -  sales Tax is not availabile :
2018-02-08 16:53:35 ERROR AvailabilityResponseReader:238 -  sales Tax is not availabile :
2018-02-08 16:53:35 ERROR AvailabilityResponseReader:238 -  sales Tax is not availabile :
2018-02-08 16:53:35 ERROR AvailabilityResponseReader:238 -  sales Tax is not availabile :
2018-02-08 16:53:35 ERROR AvailabilityResponseReader:238 -  sales Tax is not availabile :
2018-02-08 16:53:35 ERROR AvailabilityResponseReader:238 -  sales Tax is not availabile :
2018-02-08 16:53:35 ERROR AvailabilityResponseReader:238 -  sales Tax is not availabile :
2018-02-08 16:53:35 ERROR AvailabilityResponseReader:238 -  sales Tax is not availabile :
2018-02-08 16:53:35 ERROR AvailabilityResponseReader:238 -  sales Tax is not availabile :
2018-02-08 16:53:35 ERROR AvailabilityResponseReader:238 -  sales Tax is not availabile :
2018-02-08 16:53:35 ERROR AvailabilityResponseReader:238 -  sales Tax is not availabile :
2018-02-08 16:53:35 ERROR AvailabilityResponseReader:238 -  sales Tax is not availabile :
2018-02-08 16:53:35 ERROR AvailabilityResponseReader:238 -  sales Tax is not availabile :
2018-02-08 16:53:35 ERROR AvailabilityResponseReader:238 -  sales Tax is not availabile :
2018-02-08 16:53:35 INFO  AvailabilityResponseReader:272 - hotel Count :1
2018-02-08 16:53:35 INFO  AvailabilityResponseReader:273 - Sucessfully Return the Availability Response
